
{
    "$schema": "http://json-schema.org/schema#",
    "type": "object",
    "properties": {
      "spec": {
        "required": [
          "clusterSpecific",
          "clusterInfo"
        ],
        "type": "object",
        "description": "CustomizeSpec has clusterspecific and clusterinfo object",
        "properties": {
          "clusterSpecific" : {
              "type": "string",
              "maxLength": 128,
              "pattern": "^([A-Za-z0-9][-A-Za-z0-9_.]*)?[A-Za-z0-9]$"
          },
          "clusterInfo" :{
            "required": [
              "scope",
              "clusterProvider",
              "mode"
            ],
            "type": "object",
            "description": "clusterinfo contains the details regarding scope, clusterprovider, clustername, clusterlabel, mode",
            "properties": {
              "scope": {
                "type": "string",
                "maxLength": 128,
                "pattern": "^([A-Za-z0-9][-A-Za-z0-9_.]*)?[A-Za-z0-9]$"
              },
              "clusterProvider": {
                "type": "string",
                "maxLength": 128,
                "pattern": "^([A-Za-z0-9][-A-Za-z0-9_.]*)?[A-Za-z0-9]$"
              },
              "cluster": {
                "type": "string",
                "maxLength": 128
                
              },
              "clusterLabel": {
                "type": "string",
                "maxLength": 128
                
              },
              "mode": {
                "type": "string",
                "maxLength": 128,
                "pattern": "^([A-Za-z0-9][-A-Za-z0-9_.]*)?[A-Za-z0-9]$"
              }
            }
          },
          "patchType" :{
            "type": "string",
            "maxLength": 128
            
          },
          "patchJson" : {
            "type":"array"
          }
        }
      },
      "metadata": {
        "required": ["name"],
        "properties": {
          "userData2": {
            "description": "User relevant data for the resource",
            "type": "string",
            "example": "Some more data",
            "maxLength": 512
          },
          "userData1": {
            "description": "User relevant data for the resource",
            "type": "string",
            "example": "Some data",
            "maxLength": 512
          },
          "name": {
            "description": "Name of the resource",
            "type": "string",
            "example": "ResName",
            "maxLength": 128,
            "pattern": "^([A-Za-z0-9][-A-Za-z0-9_.]*)?[A-Za-z0-9]$"
          },
          "description": {
            "description": "Description for the resource",
            "type": "string",
            "example": "Resource description",
            "maxLength": 1024
          }
        }
      }
    }
  }
