module gitlab.com/project-emco/core/emco-base/src/nps

require (
	github.com/golang/protobuf v1.4.2
	github.com/gorilla/handlers v1.3.0
	github.com/gorilla/mux v1.7.3
	github.com/onsi/ginkgo v1.12.0
	github.com/onsi/gomega v1.9.0
	gitlab.com/project-emco/core/emco-base/src/clm v0.0.0-00010101000000-000000000000
	gitlab.com/project-emco/core/emco-base/src/dtc v0.0.0-00010101000000-000000000000
	gitlab.com/project-emco/core/emco-base/src/monitor v0.0.0-00010101000000-000000000000
	gitlab.com/project-emco/core/emco-base/src/orchestrator v0.0.0-00010101000000-000000000000
	gitlab.com/project-emco/core/emco-base/src/rsync v0.0.0-00010101000000-000000000000
	github.com/pkg/errors v0.9.1
	google.golang.org/grpc v1.28.0
	google.golang.org/protobuf v1.24.0
	gopkg.in/yaml.v2 v2.3.0
	k8s.io/api v0.20.2
	k8s.io/apimachinery v0.20.2
)

replace (
	github.com/Sirupsen/logrus => github.com/sirupsen/logrus v1.7.0
	github.com/docker/distribution => github.com/docker/distribution v0.0.0-20191216044856-a8371794149d
	github.com/docker/docker => github.com/moby/moby v17.12.0-ce-rc1.0.20200618181300-9dc6525e6118+incompatible
	gitlab.com/project-emco/core/emco-base/src/clm => ../clm
	gitlab.com/project-emco/core/emco-base/src/dtc => ../dtc
	gitlab.com/project-emco/core/emco-base/src/monitor => ../monitor
	gitlab.com/project-emco/core/emco-base/src/nps => ../nps
	gitlab.com/project-emco/core/emco-base/src/orchestrator => ../orchestrator
	gitlab.com/project-emco/core/emco-base/src/rsync => ../rsync
	go.etcd.io/etcd => go.etcd.io/etcd v0.5.0-alpha.5.0.20200819165624-17cef6e3e9d5 // 17cef6e3e9d5 is the SHA for git tag v3.4.12
	k8s.io/api => k8s.io/api v0.19.4
	k8s.io/apiextensions-apiserver => k8s.io/apiextensions-apiserver v0.19.4
	k8s.io/apimachinery => k8s.io/apimachinery v0.19.4
	k8s.io/apiserver => k8s.io/apiserver v0.19.4
	k8s.io/cli-runtime => k8s.io/cli-runtime v0.19.4
	k8s.io/client-go => k8s.io/client-go v0.19.4
	k8s.io/cloud-provider => k8s.io/cloud-provider v0.19.4
	k8s.io/cluster-bootstrap => k8s.io/cluster-bootstrap v0.19.4
	k8s.io/code-generator => k8s.io/code-generator v0.19.4
	k8s.io/component-base => k8s.io/component-base v0.19.4
	k8s.io/cri-api => k8s.io/cri-api v0.19.4
	k8s.io/csi-translation-lib => k8s.io/csi-translation-lib v0.19.4
	k8s.io/kube-aggregator => k8s.io/kube-aggregator v0.19.4
	k8s.io/kube-controller-manager => k8s.io/kube-controller-manager v0.19.4
	k8s.io/kube-proxy => k8s.io/kube-proxy v0.19.4
	k8s.io/kube-scheduler => k8s.io/kube-scheduler v0.19.4
	k8s.io/kubectl => k8s.io/kubectl v0.19.4
	k8s.io/kubelet => k8s.io/kubelet v0.19.4
	k8s.io/kubernetes => github.com/kubernetes/kubernetes v1.19.4
	k8s.io/legacy-cloud-providers => k8s.io/legacy-cloud-providers v0.19.4
	k8s.io/metrics => k8s.io/metrics v0.19.4
	k8s.io/sample-apiserver => k8s.io/sample-apiserver v0.19.4
)

go 1.13
